{
    "0": {
        "name": " Deluxe Materials"
    },
    "1": {
        "name": "Interior Decorations",
        "search": "WM"
    },
    "10": {
        "name": "Bedroom Accessories"
    },
    "11": {
        "name": "Bikes"
    },
    "12": {
        "name": "Bird Accessories"
    },
    "13": {
        "name": "Boxed Lot Deals"
    },
    "14": {
        "name": "Brick & Stone"
    },
    "15": {
        "name": "Building Supplies"
    },
    "16": {
        "name": "Bulk Items"
    },
    "17": {
        "name": "Candles & Candlesticks",
	"search": "CC"
    },
    "18": {
        "name": "Carpet, Flooring, Rugs"
    },
    "19": {
        "name": "Cats"
    },
    "2": {
        "name": "Accessory Assortments"
    },
    "20": {
        "name": "Chrysnbon"
    },
    "21": {
        "name": "Clocks"
    },
    "22": {
        "name": "Collectible Chairs"
    },
    "23": {
        "name": "Curtains"
    },
    "24": {
        "name": "Dining Room"
    },
    "25": {
        "name": "Dogs"
    },
    "26": {
        "name": "Doll Shoes & Clothing"
    },
    "27": {
        "name": "Dolls"
    },
    "28": {
        "name": "Doors"
    },
    "29": {
        "name": "Electronics"
    },
    "3": {
        "name": "Adhesives"
    },
    "30": {
        "name": "Evergreen"
    },
    "31": {
        "name": "Fireplaces"
    },
    "32": {
        "name": "Framed Roomboxes"
    },
    "33": {
        "name": "Gameroom"
    },
    "34": {
        "name": "Garden"
    },
    "35": {
        "name": "Garden Accessories"
    },
    "36": {
        "name": "Half Inch"
    },
    "37": {
        "name": "Half Inch Scale"
    },
    "38": {
        "name": "Handpainted"
    },
    "39": {
        "name": "Hardware"
    },
    "4": {
        "name": "Animals"
    },
    "40": {
        "name": "Holiday Accessories"
    },
    "41": {
        "name": "How To Books"
    },
    "42": {
        "name": "Ironing & Luggage",
	"search": "IL"
    },
    "43": {
        "name": "JBM"
    },
    "44": {
        "name": "Kitchen"
    },
    "45": {
        "name": "Kitchen Accessories"
    },
    "46": {
        "name": "Kits"
    },
    "47": {
        "name": "Laundry"
    },
    "48": {
        "name": "Library Accessories"
    },
    "49": {
        "name": "Lighting & Electrical"
    },
    "5": {
        "name": "Bar Accessories"
    },
    "50": {
        "name": "Lincoln & Jefferson"
    },
    "51": {
        "name": "Living Room"
    },
    "52": {
        "name": "Mailboxes"
    },
    "53": {
        "name": "Mice & Rodents"
    },
    "54": {
        "name": "Mini Houses"
    },
    "55": {
        "name": "Mis-Ships & Super Saver"
    },
    "56": {
        "name": "Music"
    },
    "57": {
        "name": "Non-Miniature Items"
    },
    "58": {
        "name": "Nursery"
    },
    "59": {
        "name": "Nursery Accessories"
    },
    "6": {
        "name": "Baskets"
    },
    "60": {
        "name": "Office"
    },
    "61": {
        "name": "Office Accessories"
    },
    "62": {
        "name": "Other Scales"
    },
    "63": {
        "name": "Outdoor Accessories"
    },
    "64": {
        "name": "Painting, Photos, Frames, Mirrors"
    },
    "65": {
        "name": "Patio"
    },
    "66": {
        "name": "Plant & Flower"
    },
    "67": {
        "name": "Platinum Collection"
    },
    "68": {
        "name": "Plugs & Moldings"
    },
    "69": {
        "name": "Porcelain"
    },
    "7": {
        "name": "Bathroom"
    },
    "70": {
        "name": "Pots, Urns, Vases Statuary"
    },
    "71": {
        "name": "Roofing"
    },
    "72": {
        "name": "Roombox, Dollhouse"
    },
    "73": {
        "name": "Sewing"
    },
    "74": {
        "name": "Shelves"
    },
    "75": {
        "name": "Sports & Games"
    },
    "76": {
        "name": "Store"
    },
    "77": {
        "name": "Store Accessories"
    },
    "78": {
        "name": "Tools & Misc."
    },
    "79": {
        "name": "Toys"
    },
    "8": {
        "name": "Bathroom Accessories"
    },
    "80": {
        "name": "Unfinished"
    },
    "81": {
        "name": "Wallpaper"
    },
    "82": {
        "name": "Western & Guns"
    },
    "83": {
        "name": "Windows"
    },
    "84": {
        "name": "Wire"
    },
    "9": {
        "name": "Bedroom"
    }
}
